     cdna_sequences   count   ratio_real_expected_sequence_occurences
1    GGTGGAAAGGGG     1        3.878101                              
2    GGATGGGGATGG     1        4.556808                              
3    GGGGGGTATAGG     1        4.556808                              
4    GGAAGGGAGGGG     1        5.282846                              
5    GGGGTTTGGAGG     1        5.354297                              
6    GGTGGTTGGAGG     1        5.354297                              
7    GGTTGGAGGTGG     1        5.354297                              
8    GGTAGGGGTTGG     1        5.354297                              
9    GGTTTGGAGGGG     1        5.354297                              
10   GGCAGGAAGGGG     1        5.600485                              
11   GGAGGCGGAAGG     1        5.600485                              
12   GGAGGAGTGGGG     1        6.207398                              
13   GGATGGGGAGGG     1        6.207398                              
14   GGGGTAAGGGGG     1        6.207398                              
15   GGTGGGGAAGGG     1        6.207398                              
16   GGGGTTTTGGGG     1        6.291354                              
17   GGTTTGGTGGGG     1        6.291354                              
18   GGTGGGGCAAGG     1        6.580628                              
19   GGACTGGGGAGG     1        6.580628                              
20   GGGGACGGATGG     1        6.580628                              
21   GGGGAGGTCAGG     1        6.580628                              
22   GGGGTGGAACGG     1        6.580628                              
23   GGTGGACAGGGG     1        6.580628                              
24   GGTTGGGAGGGG     1        7.293757                              
25   GGAGGCTGGTGG     1        7.732305                              
26   GGGGCTGGATGG     1        7.732305                              
27   GGGGTGGACTGG     1        7.732305                              
28   GGTGGTGGTGGG     1        8.570240                              
29   GGTGTGGTGGGG     1        8.570240                              
30   GGAGGCGGAGGG     1        8.964295                              
31   GGCGGGGAGAGG     1        8.964295                              
32   GGGGAAGGGCGG     1        8.964295                              
33   GGGGCGGAAGGG     1        8.964295                              
34   GGCTGGTTGGGG     1        9.085539                              
35   GGTGGTCTGGGG     1        9.085539                              
36   GGTTGGTGGCGG     1        9.085539                              
37   GGAGGGGGTGGG     1        9.935738                              
38   GGATGGGGCGGG     1       10.533140                              
39   GGGGCATGGGGG     1       10.533140                              
40   GGTGGAGCGGGG     1       10.533140                              
41   GGAGGGGGCTGG     1       10.533140                              
42   GGTGGCGGCAGG     1       11.166461                              
43   GGCGGTGGACGG     1       11.166461                              
44   GGCTGGCAGGGG     1       11.166461                              
45   GGCGGTTGGGGG     1       12.376548                              
46   GGTGGGGTGCGG     1       12.376548                              
47   GGTTGGGGCGGG     1       12.376548                              
48   GGTGGGGCCTGG     1       13.120707                              
49   GGGGGGACCGGG     1       15.211232                              
50   GGTGGTGGCAGG     2       15.464611                              
